…
``` r
data <- tibble(
  state = sample(brazil_states$NAME_1, size = 1000, replace = TRUE),
  value = sample(1:1000, size = 1000, replace = TRUE)
)

data
#> # A tibble: 1,000 × 2
#>   state              value
#>   <chr>              <int>
#> 1 Minas Gerais         881
#> 2 Mato Grosso do Sul   300
#> 3 Amazonas             778
#> 4 Sergipe              393
#> 5 Acre                 682
#> 6 Roraima              369
#> # ℹ 994 more rows
```

``` r
data <- map_fill_data(data, col_fill = "value", col_code = "state")
#> ! There are duplicated values in state. value will be aggregated using the mean.

data
#> # A tibble: 27 × 2
#>   state                  n
#>   <chr>              <dbl>
#> 1 Minas Gerais        581.
#> 2 Mato Grosso do Sul  538.
#> 3 Amazonas            543.
#> 4 Sergipe             464.
#> 5 Acre                546.
#> 6 Roraima             530.
#> # ℹ 21 more rows
```
…
``` r
data <- tibble(
  latitude = brazil_state_latitude(),
  longitude = brazil_state_longitude()
)

data
#> # A tibble: 27 × 2
#>   latitude longitude
#>      <dbl>     <dbl>
#> 1  -9.98       -67.8
#> 2  -9.65       -35.7
#> 3   0.0402     -51.1
#> 4  -3.13       -60.0
#> 5 -13.0        -38.5
#> 6  -3.73       -38.5
#> # ℹ 21 more rows
```
…
