Get Brazilian municipalities geographic coordinates — brazil_municipality_coords • orbis
…
    Examples

library(curl)

# \dontrun{
  if (has_internet()) {
    brazil_municipality_coords()
  }
#> ! The closest map year to 2026 is 2010. Using year 2010 instead.
#> Using year/date 2010
#> # A tibble: 5,565 × 3
#>   municipality_code latitude longitude
#>               <int>    <dbl>     <dbl>
#> 1           1100015   -11.9      -62.0
#> 2           1100023    -9.91     -63.0
#> 3           1100031   -13.5      -60.5
#> 4           1100049   -11.4      -61.4
#> 5           1100056   -13.2      -60.8
#> 6           1100064   -13.1      -60.6
#> # ℹ 5,559 more rows
…
# \dontrun{
  if (has_internet()) {
    brazil_municipality_coords(municipality_code = 3550)
  }
#> ! The closest map year to 2026 is 2010. Using year 2010 instead.
#> Using year/date 2010
#> # A tibble: 10 × 3
#>   municipality_code latitude longitude
#>               <int>    <dbl>     <dbl>
#> 1           3550001    -23.2     -45.3
#> 2           3550100    -22.7     -48.6
#> 3           3550209    -23.9     -48.0
#> 4           3550308    -23.6     -46.6
#> 5           3550407    -22.5     -47.9
#> 6           3550506    -22.8     -49.7
#> # ℹ 4 more rows
…
