Filter points on land — filter_points • orbis
…
  print(plot)
}

# Define the Points -----

# \dontrun{
  if (has_internet() && test_geobr_connection()) {
    data <- tibble(
      latitude = brazil_state_latitude(),
      longitude = brazil_state_longitude()
    )

    data
  }
#> # A tibble: 27 × 2
#>   latitude longitude
#>      <dbl>     <dbl>
#> 1  -9.98       -67.8
#> 2  -9.65       -35.7
#> 3   0.0402     -51.1
#> 4  -3.13       -60.0
#> 5 -13.0        -38.5
#> 6  -3.73       -38.5
#> # ℹ 21 more rows
…
