Prepare data to fill a map — map_fill_data • orbis
…
# Define the Data -----

# \dontrun{
  if (has_internet()) {
    data <- tibble(
      state = sample(
        brazil_states_vector$NAME_1, size = 1000, replace = TRUE
      ),
      value = sample(1:1000, size = 1000, replace = TRUE)
    )

    data
  }
#> # A tibble: 1,000 × 2
#>   state               value
#>   <chr>               <int>
#> 1 Bahia                  45
#> 2 Rio Grande do Norte   224
#> 3 Sergipe                 8
#> 4 Paraná                482
#> 5 Piauí                 925
#> 6 Pernambuco            793
#> # ℹ 994 more rows
# }

# Create the Map Fill Data -----

# \dontrun{
  if (has_internet()) {
    data <- data |> map_fill_data(col_fill = "value", col_ref = "state")

    data
  }
#> ! There are duplicated values in state. value will be aggregated using the mean.
#> # A tibble: 27 × 2
#>   state               value
#>   <chr>               <dbl>
#> 1 Bahia                429 
#> 2 Rio Grande do Norte  528 
#> 3 Sergipe              537.
#> 4 Paraná               465.
#> 5 Piauí                583.
#> 6 Pernambuco           555.
#> # ℹ 21 more rows
…
